[
{
  "model": "lec.unit",
  "pk": 1,
  "fields": {
    "user": 1,
    "code": "HBC 201",
    "name": "Intro To Computer Programming"
  }
},
{
  "model": "lec.unit",
  "pk": 2,
  "fields": {
    "user": 1,
    "code": "HCI 401",
    "name": "Human Computer Interface"
  }
},
{
  "model": "lec.unit",
  "pk": 3,
  "fields": {
    "user": 1,
    "code": "WEB 302",
    "name": "Python-Django"
  }
},
{
  "model": "lec.unit",
  "pk": 4,
  "fields": {
    "user": 1,
    "code": "Android 301",
    "name": "JAVA"
  }
},
{
  "model": "lec.unit",
  "pk": 5,
  "fields": {
    "user": 1,
    "code": "HBN 101",
    "name": "Intro To Accounting"
  }
}
]
